{
  "docs": [
    {
      "_id": "5cd96e05de30eff6ebcced61",
      "dialog": "Who is she? This woman you sing of?",
      "movie": "5cd95395de30eff6ebccde5c"
    },
    {
      "_id": "5cd96e05de30eff6ebcced62",
      "dialog": "Tis the Lady of L'thien. The Elf Maiden who gave her love to Beren ... a mortal.",
      "movie": "5cd95395de30eff6ebccde5c"
    },
    {
      "_id": "5cd96e05de30eff6ebcced64",
      "dialog": "What are they eating when they can't get hobbit?",
      "movie": "5cd95395de30eff6ebccde5c"
    },
    {
      "_id": "5cd96e05de30eff6ebcced65",
      "dialog": "What happened to her?",
      "movie": "5cd95395de30eff6ebccde5c"
    },
    {
      "_id": "5cd96e05de30eff6ebcced66",
      "dialog": "She died.",
      "movie": "5cd95395de30eff6ebccde5c"
    }
  ],
  "total": 10,
  "page": 1,
  "pages": 2
}
