{
  "docs": [
    {
      "_id": "5cd96e05de30eff6ebcced67",
      "dialog": "The power of Isengard is at your command",
      "movie": "5cd95395de30eff6ebccde5c"
    },
    {
      "_id": "5cd96e05de30eff6ebcced69",
      "dialog": "Sauron. Lord of the Earth.",
      "movie": "5cd95395de30eff6ebccde5c"
    },
    {
      "_id": "5cd96e05de30eff6ebcced6a",
      "dialog": "Stay close young hobbits.",
      "movie": "5cd95395de30eff6ebccde5c"
    },
    {
      "_id": "5cd96e05de30eff6ebcced6b",
      "dialog": "Frodo! Frodo!",
      "movie": "5cd95395de30eff6ebccde5c"
    },
    {
      "_id": "5cd96e05de30eff6ebcced6c",
      "dialog": "..and are never seen again",
      "movie": "5cd95395de30eff6ebccde5c"
    }
  ],
  "total": 10,
  "page": 2,
  "pages": 2
}
