{
  "docs": [
    {
      "_id": "5cd95395de30eff6ebccde56",
      "name": "The Lord of the Rings Series",
      "runtimeInMinutes": 558,
      "budgetInMillions": 281,
      "boxOfficeRevenueInMillions": 2917,
      "academyAwardNominations": 30,
      "academyAwardWins": 17,
      "rottenTomatoesScore": 94
    },
    {
      "_id": "5cd95395de30eff6ebccde57",
      "name": "The Hobbit Series",
      "runtimeInMinutes": 462,
      "budgetInMillions": 675,
      "boxOfficeRevenueInMillions": 2932,
      "academyAwardNominations": 7,
      "academyAwardWins": 1,
      "rottenTomatoesScore": 66.33333333
    },
    {
      "_id": "5cd95395de30eff6ebccde58",
      "name": "The Unexpected Journey",
      "runtimeInMinutes": 169,
      "budgetInMillions": 200,
      "boxOfficeRevenueInMillions": 1021,
      "academyAwardNominations": 3,
      "academyAwardWins": 1,
      "rottenTomatoesScore": 64
    },
    {
      "_id": "5cd95395de30eff6ebccde59",
      "name": "The Desolation of Smaug",
      "runtimeInMinutes": 161,
      "budgetInMillions": 217,
      "boxOfficeRevenueInMillions": 958.4,
      "academyAwardNominations": 3,
      "academyAwardWins": 0,
      "rottenTomatoesScore": 75
    }
  ],
  "total": 8,
  "page": 1,
  "pages": 2
}
