{
  "docs": [
    {
      "_id": "5cd96e05de30eff6ebccebd2",
      "dialog": "We're safe, my lady.Thank you.",
      "movie": "5cd95395de30eff6ebccde5b"
    },
    {
      "_id": "5cd96e05de30eff6ebccebd3",
      "dialog": "He's dead. He took a little tumble off the cliff.",
      "movie": "5cd95395de30eff6ebccde5b"
    },
    {
      "_id": "5cd96e05de30eff6ebccebd4",
      "dialog": "Mama!",
      "movie": "5cd95395de30eff6ebccde5b"
    },
    {
      "_id": "5cd96e05de30eff6ebccebd5",
      "dialog": "Come.",
      "movie": "5cd95395de30eff6ebccde5b"
    },
    {
      "_id": "5cd96e05de30eff6ebccebd6",
      "dialog": "At last! Helm's DeepThere it is, Helm's Deep.We're safe!",
      "movie": "5cd95395de30eff6ebccde5b"
    },
    {
      "_id": "5cd96e05de30eff6ebccebd7",
      "dialog": "Eothain!Freda!",
      "movie": "5cd95395de30eff6ebccde5b"
    },
    {
      "_id": "5cd96e05de30eff6ebccebd8",
      "dialog": "Where is the rest?",
      "movie": "5cd95395de30eff6ebccde5b"
    },
    {
      "_id": "5cd96e05de30eff6ebccebd9",
      "dialog": "This is all we could save, my lady.",
      "movie": "5cd95395de30eff6ebccde5b"
    },
    {
      "_id": "5cd96e05de30eff6ebccebda",
      "dialog": "Take it to the caves.",
      "movie": "5cd95395de30eff6ebccde5b"
    },
    {
      "_id": "5cd96e05de30eff6ebccebdc",
      "dialog": "Simbelmyne. Ever has it grown on the tombs of my forebearers. Now it shall cover the grave of my son. Alas that these evil days should be mine. The young perish and the old linger. That I should live......to see the last days of my house.",
      "movie": "5cd95395de30eff6ebccde5b"
    }
  ],
  "total": 20,
  "page": 2,
  "pages": 2
}
