{
  "docs": [
    {
      "_id": "5cd96e05de30eff6ebcce7e9",
      "dialog": "Deagol!",
      "movie": "5cd95395de30eff6ebccde5d"
    },
    {
      "_id": "5cd96e05de30eff6ebcce7ea",
      "dialog": "Deagol!",
      "movie": "5cd95395de30eff6ebccde5d"
    },
    {
      "_id": "5cd96e05de30eff6ebcce7eb",
      "dialog": "Deagol!",
      "movie": "5cd95395de30eff6ebccde5d"
    },
    {
      "_id": "5cd96e05de30eff6ebcce7ec",
      "dialog": "Give us that! Deagol my love",
      "movie": "5cd95395de30eff6ebccde5d"
    },
    {
      "_id": "5cd96e05de30eff6ebcce7ed",
      "dialog": "Why?",
      "movie": "5cd95395de30eff6ebccde5d"
    },
    {
      "_id": "5cd96e05de30eff6ebcce7ee",
      "dialog": "Because', it's my birthday and I wants it.",
      "movie": "5cd95395de30eff6ebccde5d"
    },
    {
      "_id": "5cd96e05de30eff6ebcce7ef",
      "dialog": "Arrghh!",
      "movie": "5cd95395de30eff6ebccde5d"
    },
    {
      "_id": "5cd96e05de30eff6ebcce7f0",
      "dialog": "They cursed us!",
      "movie": "5cd95395de30eff6ebccde5d"
    },
    {
      "_id": "5cd96e05de30eff6ebcce7f1",
      "dialog": "Murderer!",
      "movie": "5cd95395de30eff6ebccde5d"
    },
    {
      "_id": "5cd96e05de30eff6ebcce7f2",
      "dialog": "'Murderer' they called us. They cursed us and drove us away.",
      "movie": "5cd95395de30eff6ebccde5d"
    }
  ],
  "total": 20,
  "page": 1,
  "pages": 2
}
